EESchema Schematic File Version 4
EELAYER 30 0
EELAYER END
$Descr A4 11693 8268
encoding utf-8
Sheet 1 1
Title ""
Date ""
Rev ""
Comp ""
Comment1 ""
Comment2 ""
Comment3 ""
Comment4 ""
$EndDescr
$Comp
L Device:R R10
U 1 1 5EB1BC08
P 4650 2550
F 0 "R10" H 4720 2596 50  0000 L CNN
F 1 "330k" H 4720 2505 50  0000 L CNN
F 2 "Resistor_SMD:R_1206_3216Metric" V 4580 2550 50  0001 C CNN
F 3 "~" H 4650 2550 50  0001 C CNN
	1    4650 2550
	-1   0    0    1   
$EndComp
$Comp
L Device:R R11
U 1 1 5EB1BC59
P 4650 2250
F 0 "R11" H 4720 2296 50  0000 L CNN
F 1 "330k" H 4720 2205 50  0000 L CNN
F 2 "Resistor_SMD:R_1206_3216Metric" V 4580 2250 50  0001 C CNN
F 3 "~" H 4650 2250 50  0001 C CNN
	1    4650 2250
	-1   0    0    1   
$EndComp
$Comp
L Device:R R12
U 1 1 5EB1BC8D
P 4650 1950
F 0 "R12" H 4720 1996 50  0000 L CNN
F 1 "330k" H 4720 1905 50  0000 L CNN
F 2 "Resistor_SMD:R_1206_3216Metric" V 4580 1950 50  0001 C CNN
F 3 "~" H 4650 1950 50  0001 C CNN
	1    4650 1950
	-1   0    0    1   
$EndComp
$Comp
L Device:R R6
U 1 1 5EB1BD8E
P 4650 3750
F 0 "R6" H 4720 3796 50  0000 L CNN
F 1 "330k" H 4720 3705 50  0000 L CNN
F 2 "Resistor_SMD:R_1206_3216Metric" V 4580 3750 50  0001 C CNN
F 3 "~" H 4650 3750 50  0001 C CNN
	1    4650 3750
	-1   0    0    1   
$EndComp
$Comp
L Device:R R5
U 1 1 5EB1BF08
P 4650 4050
F 0 "R5" H 4720 4096 50  0000 L CNN
F 1 "330k" H 4720 4005 50  0000 L CNN
F 2 "Resistor_SMD:R_1206_3216Metric" V 4580 4050 50  0001 C CNN
F 3 "~" H 4650 4050 50  0001 C CNN
	1    4650 4050
	-1   0    0    1   
$EndComp
$Comp
L Connector:Conn_01x14_Female J1
U 1 1 5EB1C360
P 3450 3600
F 0 "J1" H 3344 4385 50  0000 C CNN
F 1 "Conn" H 3344 4294 50  0000 C CNN
F 2 "0_custom:E1198_23_Base_54mm" H 3450 3600 50  0001 C CNN
F 3 "~" H 3450 3600 50  0001 C CNN
	1    3450 3600
	-1   0    0    -1  
$EndComp
$Comp
L Device:C C2
U 1 1 5EB1C9CC
P 5050 1950
F 0 "C2" H 5165 1996 50  0000 L CNN
F 1 "10n" H 5165 1905 50  0000 L CNN
F 2 "Capacitor_SMD:C_1206_3216Metric" H 5088 1800 50  0001 C CNN
F 3 "~" H 5050 1950 50  0001 C CNN
	1    5050 1950
	1    0    0    -1  
$EndComp
$Comp
L Device:C C3
U 1 1 5EB1CA2C
P 5050 2250
F 0 "C3" H 5165 2296 50  0000 L CNN
F 1 "10n" H 5165 2205 50  0000 L CNN
F 2 "Capacitor_SMD:C_1206_3216Metric" H 5088 2100 50  0001 C CNN
F 3 "~" H 5050 2250 50  0001 C CNN
	1    5050 2250
	1    0    0    -1  
$EndComp
$Comp
L Device:C C4
U 1 1 5EB1CA78
P 5050 2550
F 0 "C4" H 5165 2596 50  0000 L CNN
F 1 "10n" H 5165 2505 50  0000 L CNN
F 2 "Capacitor_SMD:C_1206_3216Metric" H 5088 2400 50  0001 C CNN
F 3 "~" H 5050 2550 50  0001 C CNN
	1    5050 2550
	1    0    0    -1  
$EndComp
$Comp
L Device:C C5
U 1 1 5EB1CB86
P 5400 1950
F 0 "C5" H 5515 1996 50  0000 L CNN
F 1 "10n" H 5515 1905 50  0000 L CNN
F 2 "Capacitor_SMD:C_1206_3216Metric" H 5438 1800 50  0001 C CNN
F 3 "~" H 5400 1950 50  0001 C CNN
	1    5400 1950
	1    0    0    -1  
$EndComp
$Comp
L Device:R R14
U 1 1 5EB1CC09
P 6750 1800
F 0 "R14" V 6543 1800 50  0000 C CNN
F 1 "1k" V 6634 1800 50  0000 C CNN
F 2 "Resistor_SMD:R_0805_2012Metric" V 6680 1800 50  0001 C CNN
F 3 "~" H 6750 1800 50  0001 C CNN
	1    6750 1800
	0    1    1    0   
$EndComp
Text Notes 8900 4650 0    50   ~ 0
1 Signal\n2 Signal GND
Wire Wire Line
	3650 4300 4050 4300
Wire Wire Line
	4050 4300 4050 5400
Wire Wire Line
	4150 4200 4150 5100
Wire Wire Line
	3650 4200 4150 4200
Wire Wire Line
	3650 3000 4250 3000
Wire Wire Line
	4250 3000 4250 4800
Wire Wire Line
	4450 4200 4650 4200
Wire Wire Line
	3650 3300 4150 3300
Wire Wire Line
	4150 3300 4150 3900
Wire Wire Line
	4150 3900 4650 3900
Connection ~ 4650 3900
Wire Wire Line
	3650 3400 4050 3400
Wire Wire Line
	4050 3600 4650 3600
Wire Wire Line
	3650 3500 4550 3500
Wire Wire Line
	3650 3600 3800 3600
Wire Wire Line
	3800 3600 3800 2900
Wire Wire Line
	3650 3700 3900 3700
Wire Wire Line
	3900 3700 3900 2700
Wire Wire Line
	3900 2700 4650 2700
Connection ~ 4650 2700
Wire Wire Line
	3650 3800 4000 3800
Wire Wire Line
	4000 3800 4000 2400
Wire Wire Line
	4000 2400 4650 2400
Connection ~ 4650 2400
Wire Wire Line
	4050 3400 4050 3600
Wire Wire Line
	3650 3900 3700 3900
Wire Wire Line
	3700 3900 3700 2100
Wire Wire Line
	3700 2100 4650 2100
Connection ~ 4650 2100
Wire Wire Line
	3650 4000 4100 4000
Wire Wire Line
	4650 1800 5050 1800
Connection ~ 5050 1800
Wire Wire Line
	5050 1800 5400 1800
Wire Wire Line
	5050 2700 4650 2700
Wire Wire Line
	4650 2100 5050 2100
Connection ~ 5050 2100
Wire Wire Line
	4650 2400 5050 2400
Connection ~ 5050 2400
Wire Wire Line
	5400 2100 5050 2100
Wire Wire Line
	5400 1800 5550 1800
Connection ~ 5400 1800
Wire Wire Line
	6900 1800 7150 1800
$Comp
L Connector:Conn_01x01_Female J2
U 1 1 5EBDBE89
P 8250 4650
F 0 "J2" H 8278 4676 50  0000 L CNN
F 1 "TTL Gate IN" H 8400 4700 50  0000 L CNN
F 2 "0_custom:0.8x1.6mm_pad" H 8250 4650 50  0001 C CNN
F 3 "~" H 8250 4650 50  0001 C CNN
	1    8250 4650
	1    0    0    -1  
$EndComp
$Comp
L Connector:Conn_01x01_Female J3
U 1 1 5EBDC77B
P 8250 4750
F 0 "J3" H 8278 4776 50  0000 L CNN
F 1 "Signal GND" H 8400 4750 50  0000 L CNN
F 2 "0_custom:0.8x1.6mm_pad" H 8250 4750 50  0001 C CNN
F 3 "~" H 8250 4750 50  0001 C CNN
	1    8250 4750
	1    0    0    -1  
$EndComp
$Comp
L Connector:Conn_01x01_Female J4
U 1 1 5EBDCC01
P 7350 1800
F 0 "J4" H 7378 1826 50  0000 L CNN
F 1 "HV +" H 7500 1800 50  0000 L CNN
F 2 "0_custom:1.2x2mm_pad" H 7350 1800 50  0001 C CNN
F 3 "~" H 7350 1800 50  0001 C CNN
	1    7350 1800
	1    0    0    -1  
$EndComp
Connection ~ 4650 3600
Connection ~ 4650 3000
Wire Wire Line
	4400 3000 4650 3000
Wire Wire Line
	4400 2900 4400 3000
Wire Wire Line
	3800 2900 4400 2900
Connection ~ 4650 3300
Wire Wire Line
	4550 3300 4650 3300
Wire Wire Line
	4550 3500 4550 3300
Wire Wire Line
	4450 3200 3650 3200
Wire Wire Line
	4450 3200 4450 4200
Wire Wire Line
	4350 3100 4350 4500
Wire Wire Line
	3650 3100 4350 3100
$Comp
L Device:R R9
U 1 1 5EB1BDA3
P 4650 2850
F 0 "R9" H 4720 2896 50  0000 L CNN
F 1 "330k" H 4720 2805 50  0000 L CNN
F 2 "Resistor_SMD:R_1206_3216Metric" V 4580 2850 50  0001 C CNN
F 3 "~" H 4650 2850 50  0001 C CNN
	1    4650 2850
	-1   0    0    1   
$EndComp
$Comp
L Device:R R8
U 1 1 5EB1BD9C
P 4650 3150
F 0 "R8" H 4720 3196 50  0000 L CNN
F 1 "330k" H 4720 3105 50  0000 L CNN
F 2 "Resistor_SMD:R_1206_3216Metric" V 4580 3150 50  0001 C CNN
F 3 "~" H 4650 3150 50  0001 C CNN
	1    4650 3150
	-1   0    0    1   
$EndComp
$Comp
L Device:R R7
U 1 1 5EB1BD95
P 4650 3450
F 0 "R7" H 4720 3496 50  0000 L CNN
F 1 "330k" H 4720 3405 50  0000 L CNN
F 2 "Resistor_SMD:R_1206_3216Metric" V 4580 3450 50  0001 C CNN
F 3 "~" H 4650 3450 50  0001 C CNN
	1    4650 3450
	-1   0    0    1   
$EndComp
$Comp
L Connector:Conn_01x01_Female J5
U 1 1 5EBDCE6B
P 7350 1900
F 0 "J5" H 7378 1926 50  0000 L CNN
F 1 "Power GND" H 7500 1900 50  0000 L CNN
F 2 "0_custom:1.2x2mm_pad" H 7350 1900 50  0001 C CNN
F 3 "~" H 7350 1900 50  0001 C CNN
	1    7350 1900
	1    0    0    -1  
$EndComp
Text Notes 8000 1900 0    50   ~ 0
1 +HV\n2 Power Ground
Text Notes 4050 6650 0    50   ~ 0
https://www.hamamatsu.com/resources/pdf/etd/PMT_90-101_en.pdf\nhttps://twiki.cern.ch/twiki/pub/DREAM/PmtBases/PMT_92-103_e.pdf\n
Connection ~ 4650 4200
Connection ~ 4650 4500
Wire Wire Line
	4350 4500 4650 4500
Connection ~ 4650 4800
Wire Wire Line
	4250 4800 4650 4800
Wire Wire Line
	4150 5100 4650 5100
Connection ~ 4650 5100
$Comp
L Device:R R4
U 1 1 5EB1BF24
P 4650 4350
F 0 "R4" H 4720 4396 50  0000 L CNN
F 1 "330k" H 4720 4305 50  0000 L CNN
F 2 "Resistor_SMD:R_1206_3216Metric" V 4580 4350 50  0001 C CNN
F 3 "~" H 4650 4350 50  0001 C CNN
	1    4650 4350
	-1   0    0    1   
$EndComp
$Comp
L Device:R R3
U 1 1 5EB1BF1D
P 4650 4650
F 0 "R3" H 4720 4696 50  0000 L CNN
F 1 "330k" H 4720 4605 50  0000 L CNN
F 2 "Resistor_SMD:R_1206_3216Metric" V 4580 4650 50  0001 C CNN
F 3 "~" H 4650 4650 50  0001 C CNN
	1    4650 4650
	-1   0    0    1   
$EndComp
$Comp
L Device:R R2
U 1 1 5EB1BF16
P 4650 4950
F 0 "R2" H 4720 4996 50  0000 L CNN
F 1 "330k" H 4720 4905 50  0000 L CNN
F 2 "Resistor_SMD:R_1206_3216Metric" V 4580 4950 50  0001 C CNN
F 3 "~" H 4650 4950 50  0001 C CNN
	1    4650 4950
	-1   0    0    1   
$EndComp
$Comp
L Device:R R1
U 1 1 5EB1BF0F
P 4650 5250
F 0 "R1" H 4720 5296 50  0000 L CNN
F 1 "330k" H 4720 5205 50  0000 L CNN
F 2 "Resistor_SMD:R_1206_3216Metric" V 4580 5250 50  0001 C CNN
F 3 "~" H 4650 5250 50  0001 C CNN
	1    4650 5250
	-1   0    0    1   
$EndComp
$Comp
L Device:R R18
U 1 1 606EA0B3
P 5550 3500
F 0 "R18" H 5620 3546 50  0000 L CNN
F 1 "1k" H 5620 3455 50  0000 L CNN
F 2 "Resistor_SMD:R_0805_2012Metric" V 5480 3500 50  0001 C CNN
F 3 "~" H 5550 3500 50  0001 C CNN
	1    5550 3500
	1    0    0    -1  
$EndComp
$Comp
L Device:Q_NPN_BCE Q1
U 1 1 606EC02E
P 5650 3950
F 0 "Q1" H 5841 3996 50  0000 L CNN
F 1 "Q_NPN_BCE" H 5841 3905 50  0000 L CNN
F 2 "Package_TO_SOT_SMD:SOT-223-3_TabPin2" H 5850 4050 50  0001 C CNN
F 3 "~" H 5650 3950 50  0001 C CNN
	1    5650 3950
	-1   0    0    -1  
$EndComp
$Comp
L Device:R R21
U 1 1 606F923B
P 5550 4850
F 0 "R21" H 5620 4896 50  0000 L CNN
F 1 "1k" H 5620 4805 50  0000 L CNN
F 2 "Resistor_SMD:R_0805_2012Metric" V 5480 4850 50  0001 C CNN
F 3 "~" H 5550 4850 50  0001 C CNN
	1    5550 4850
	1    0    0    -1  
$EndComp
$Comp
L Device:R R17
U 1 1 606F9FC6
P 6700 4200
F 0 "R17" H 6770 4246 50  0000 L CNN
F 1 "680k" H 6770 4155 50  0000 L CNN
F 2 "Resistor_SMD:R_1206_3216Metric" V 6630 4200 50  0001 C CNN
F 3 "~" H 6700 4200 50  0001 C CNN
	1    6700 4200
	1    0    0    -1  
$EndComp
$Comp
L Device:R R22
U 1 1 606FA615
P 6050 4850
F 0 "R22" H 6120 4896 50  0000 L CNN
F 1 "680K" H 6120 4805 50  0000 L CNN
F 2 "Resistor_SMD:R_1206_3216Metric" V 5980 4850 50  0001 C CNN
F 3 "~" H 6050 4850 50  0001 C CNN
	1    6050 4850
	1    0    0    -1  
$EndComp
$Comp
L Device:R R19
U 1 1 606FAB38
P 6400 4450
F 0 "R19" V 6193 4450 50  0000 C CNN
F 1 "680K" V 6284 4450 50  0000 C CNN
F 2 "Resistor_SMD:R_1206_3216Metric" V 6330 4450 50  0001 C CNN
F 3 "~" H 6400 4450 50  0001 C CNN
	1    6400 4450
	0    1    1    0   
$EndComp
$Comp
L Device:R R15
U 1 1 6070A95A
P 5550 3000
F 0 "R15" H 5620 3046 50  0000 L CNN
F 1 "1k" H 5620 2955 50  0000 L CNN
F 2 "Resistor_SMD:R_1206_3216Metric" V 5480 3000 50  0001 C CNN
F 3 "~" H 5550 3000 50  0001 C CNN
	1    5550 3000
	1    0    0    -1  
$EndComp
Wire Wire Line
	5550 3300 5550 3350
Wire Wire Line
	5550 3300 5550 3150
Connection ~ 5550 3300
Wire Wire Line
	5550 4150 5550 4200
Wire Wire Line
	5850 3950 5850 4450
Wire Wire Line
	5550 3650 5550 3750
Wire Wire Line
	5550 4650 5550 4700
Wire Wire Line
	5850 4450 6050 4450
Wire Wire Line
	6550 4450 6700 4450
Wire Wire Line
	6050 4700 6050 4450
Connection ~ 6050 4450
Wire Wire Line
	6050 4450 6250 4450
Wire Wire Line
	6700 5100 6700 4850
$Comp
L Device:R R20
U 1 1 6072D088
P 7450 4650
F 0 "R20" V 7243 4650 50  0000 C CNN
F 1 "10k" V 7334 4650 50  0000 C CNN
F 2 "Resistor_SMD:R_0805_2012Metric" V 7380 4650 50  0001 C CNN
F 3 "~" H 7450 4650 50  0001 C CNN
	1    7450 4650
	0    1    1    0   
$EndComp
Wire Wire Line
	7000 4650 7300 4650
Wire Wire Line
	4650 5100 5000 5100
Wire Wire Line
	5000 5100 5000 4200
Wire Wire Line
	5000 4200 5550 4200
Connection ~ 5550 4200
Wire Wire Line
	5550 4200 5550 4250
Wire Wire Line
	5550 2850 5550 1800
Connection ~ 5550 1800
Wire Wire Line
	5550 1800 6600 1800
Wire Wire Line
	8050 5400 8050 4750
Wire Wire Line
	7600 4650 7750 4650
Text Label 8000 4500 1    50   ~ 0
Sig
Wire Wire Line
	8000 4500 8000 4650
Connection ~ 8000 4650
Wire Wire Line
	8000 4650 8050 4650
$Comp
L Device:R R13
U 1 1 60753693
P 4250 1800
F 0 "R13" V 4043 1800 50  0000 C CNN
F 1 "1M" V 4134 1800 50  0000 C CNN
F 2 "Resistor_SMD:R_1206_3216Metric" V 4180 1800 50  0001 C CNN
F 3 "~" H 4250 1800 50  0001 C CNN
	1    4250 1800
	0    1    1    0   
$EndComp
Wire Wire Line
	4100 4000 4100 1800
Wire Wire Line
	4400 1800 4650 1800
Connection ~ 4650 1800
$Comp
L Device:R R26
U 1 1 6076819E
P 6700 3850
F 0 "R26" H 6770 3896 50  0000 L CNN
F 1 "1M" H 6770 3805 50  0000 L CNN
F 2 "Resistor_SMD:R_1206_3216Metric" V 6630 3850 50  0001 C CNN
F 3 "~" H 6700 3850 50  0001 C CNN
	1    6700 3850
	1    0    0    -1  
$EndComp
$Comp
L Device:R R25
U 1 1 60768C1C
P 6700 3500
F 0 "R25" H 6770 3546 50  0000 L CNN
F 1 "1M" H 6770 3455 50  0000 L CNN
F 2 "Resistor_SMD:R_1206_3216Metric" V 6630 3500 50  0001 C CNN
F 3 "~" H 6700 3500 50  0001 C CNN
	1    6700 3500
	1    0    0    -1  
$EndComp
$Comp
L Device:R R16
U 1 1 6076BD3C
P 5850 3300
F 0 "R16" V 5643 3300 50  0000 C CNN
F 1 "1M" V 5734 3300 50  0000 C CNN
F 2 "Resistor_SMD:R_1206_3216Metric" V 5780 3300 50  0001 C CNN
F 3 "~" H 5850 3300 50  0001 C CNN
	1    5850 3300
	0    1    1    0   
$EndComp
$Comp
L Device:R R24
U 1 1 6076C317
P 6550 3300
F 0 "R24" V 6343 3300 50  0000 C CNN
F 1 "1M" V 6434 3300 50  0000 C CNN
F 2 "Resistor_SMD:R_1206_3216Metric" V 6480 3300 50  0001 C CNN
F 3 "~" H 6550 3300 50  0001 C CNN
	1    6550 3300
	0    1    1    0   
$EndComp
Wire Wire Line
	6700 3300 6700 3350
Wire Wire Line
	6700 3650 6700 3700
Wire Wire Line
	6700 4000 6700 4050
Wire Wire Line
	6700 4350 6700 4450
$Comp
L Device:R R23
U 1 1 6078DD26
P 6200 3300
F 0 "R23" V 5993 3300 50  0000 C CNN
F 1 "1M" V 6084 3300 50  0000 C CNN
F 2 "Resistor_SMD:R_1206_3216Metric" V 6130 3300 50  0001 C CNN
F 3 "~" H 6200 3300 50  0001 C CNN
	1    6200 3300
	0    1    1    0   
$EndComp
Wire Wire Line
	5700 3300 5550 3300
Wire Wire Line
	6000 3300 6050 3300
Wire Wire Line
	6350 3300 6400 3300
$Comp
L Device:R R27
U 1 1 60798246
P 7750 4950
F 0 "R27" H 7820 4996 50  0000 L CNN
F 1 "1M" H 7820 4905 50  0000 L CNN
F 2 "Resistor_SMD:R_0805_2012Metric" V 7680 4950 50  0001 C CNN
F 3 "~" H 7750 4950 50  0001 C CNN
	1    7750 4950
	1    0    0    -1  
$EndComp
Wire Wire Line
	7750 4800 7750 4650
Connection ~ 7750 4650
Wire Wire Line
	7750 4650 8000 4650
Wire Wire Line
	7750 5100 7750 5400
Connection ~ 7750 5400
Wire Wire Line
	7750 5400 8050 5400
NoConn ~ 4450 1400
Text Notes 3800 1550 0    50   ~ 0
Not sure on this exact value\n
$Comp
L Device:Q_NPN_BEC Q3
U 1 1 607C30F5
P 6800 4650
F 0 "Q3" H 6991 4696 50  0000 L CNN
F 1 "Q_NPN_BEC" H 6991 4605 50  0000 L CNN
F 2 "Package_TO_SOT_SMD:SOT-23" H 7000 4750 50  0001 C CNN
F 3 "~" H 6800 4650 50  0001 C CNN
	1    6800 4650
	-1   0    0    -1  
$EndComp
Connection ~ 6700 4450
$Comp
L Device:Q_PNP_BEC Q2
U 1 1 607C5578
P 5650 4450
F 0 "Q2" H 5841 4404 50  0000 L CNN
F 1 "Q_PNP_BEC" H 5841 4495 50  0000 L CNN
F 2 "Package_TO_SOT_SMD:SOT-23" H 5850 4550 50  0001 C CNN
F 3 "~" H 5650 4450 50  0001 C CNN
	1    5650 4450
	-1   0    0    1   
$EndComp
Connection ~ 5850 4450
Text Notes 4050 6450 0    50   ~ 0
Capacitors should be X7R, 1206, and rated for >~200V. \nShould consider increasing the votage to deal with DC bias derating.\nResistors and 1206, rated for 200V
$Comp
L power:GND #PWR0101
U 1 1 607FD2F2
P 6700 5100
F 0 "#PWR0101" H 6700 4850 50  0001 C CNN
F 1 "GND" H 6705 4927 50  0000 C CNN
F 2 "" H 6700 5100 50  0001 C CNN
F 3 "" H 6700 5100 50  0001 C CNN
	1    6700 5100
	1    0    0    -1  
$EndComp
$Comp
L power:GND #PWR01
U 1 1 608214BF
P 7750 5400
F 0 "#PWR01" H 7750 5150 50  0001 C CNN
F 1 "GND" H 7755 5227 50  0000 C CNN
F 2 "" H 7750 5400 50  0001 C CNN
F 3 "" H 7750 5400 50  0001 C CNN
	1    7750 5400
	1    0    0    -1  
$EndComp
$Comp
L Device:D_Zener D1
U 1 1 60822BD9
P 4650 5550
F 0 "D1" V 4604 5630 50  0000 L CNN
F 1 "D_Zener" V 4695 5630 50  0000 L CNN
F 2 "Diode_SMD:D_SOD-123" H 4650 5550 50  0001 C CNN
F 3 "~" H 4650 5550 50  0001 C CNN
	1    4650 5550
	0    1    1    0   
$EndComp
Wire Wire Line
	4050 5400 4650 5400
Connection ~ 4650 5400
Text Label 7150 1900 2    50   ~ 0
PS_GND
Text Label 4650 5700 2    50   ~ 0
PS_GND
Wire Wire Line
	4650 5400 7750 5400
Wire Wire Line
	4650 5700 5550 5700
Wire Wire Line
	5550 5000 5550 5700
Wire Wire Line
	5550 5700 6050 5700
Wire Wire Line
	6050 5000 6050 5700
Connection ~ 5550 5700
$Comp
L Device:C C1
U 1 1 608AFF1C
P 4050 5550
F 0 "C1" H 4165 5596 50  0000 L CNN
F 1 "10n" H 4165 5505 50  0000 L CNN
F 2 "Capacitor_SMD:C_1206_3216Metric" H 4088 5400 50  0001 C CNN
F 3 "~" H 4050 5550 50  0001 C CNN
	1    4050 5550
	1    0    0    -1  
$EndComp
Connection ~ 4050 5400
Wire Wire Line
	4050 5700 4650 5700
Connection ~ 4650 5700
$Comp
L Device:C C11
U 1 1 607097FC
P 5200 3450
F 0 "C11" H 5315 3496 50  0000 L CNN
F 1 "10n" H 5315 3405 50  0000 L CNN
F 2 "Capacitor_SMD:C_1206_3216Metric" H 5238 3300 50  0001 C CNN
F 3 "~" H 5200 3450 50  0001 C CNN
	1    5200 3450
	1    0    0    -1  
$EndComp
Wire Wire Line
	5200 3300 5550 3300
$Comp
L power:GND #PWR08
U 1 1 6070A616
P 5200 3600
F 0 "#PWR08" H 5200 3350 50  0001 C CNN
F 1 "GND" H 5205 3427 50  0000 C CNN
F 2 "" H 5200 3600 50  0001 C CNN
F 3 "" H 5200 3600 50  0001 C CNN
	1    5200 3600
	1    0    0    -1  
$EndComp
$EndSCHEMATC
